<?xml version="1.0" encoding="UTF-8"?>
<!DOCTYPE svg PUBLIC "-//W3C//DTD SVG 1.1//EN" "http://www.w3.org/Graphics/SVG/1.1/DTD/svg11.dtd">
<!-- Creator: CorelDRAW X8 -->
<svg xmlns="http://www.w3.org/2000/svg" xml:space="preserve" width="1406px" height="1406px" version="1.1" style="shape-rendering:geometricPrecision; text-rendering:geometricPrecision; image-rendering:optimizeQuality; fill-rule:evenodd; clip-rule:evenodd"
viewBox="0 0 1574 1574"
 xmlns:xlink="http://www.w3.org/1999/xlink">
 <defs>
  <style type="text/css">
   <![CDATA[
    .fil0 {fill:white}
   ]]>
  </style>
 </defs>
 <g id="Layer_x0020_1">
  <metadata id="CorelCorpID_0Corel-Layer"/>
  <path class="fil0" d="M787 0c-436,0 -787,351 -787,787 0,436 351,787 787,787 436,0 787,-351 787,-787 0,-436 -351,-787 -787,-787zm453 566c0,6 0,17 0,29 0,300 -226,639 -645,639 -125,0 -244,-34 -346,-101 17,5 34,5 57,5 102,0 204,-34 277,-96 -96,0 -181,-68 -209,-159 11,6 28,6 39,6 23,0 46,-6 63,-11 -102,-17 -182,-108 -182,-221 0,0 0,0 0,0 29,17 63,28 102,28 -62,-39 -102,-113 -102,-187 0,-45 12,-85 34,-119 108,142 278,233 465,238 -6,-17 -6,-34 -6,-51 0,-124 102,-226 227,-226 62,0 124,28 164,73 51,-11 102,-28 141,-56 -17,51 -51,96 -96,124 45,-5 91,-17 130,-34 -34,46 -68,85 -113,119l0 0z"/>
 </g>
</svg>
